ado_vs_adu_comparison
…
# A tibble: 550 × 3
# Groups:   unique_rounds [550]
   unique_rounds round_gem_found     n
           <dbl>           <dbl> <int>
 1             1               4    21
 2            37              14    11
 3            50              13    12
 4            63              14    11
 5            64              23     2
 6            67               4    21
 7            70              23     2
 8            75              13     9
 9            78               9    15
10            81               2    23
# ℹ 540 more rows
…
